3797523b81c7d222162a13fc135e7af08abbf8bd1431f448fb
47f5205665c61e427544124f3f5aeffbc6ae78725a4accee62
bb0b011b1b41f038e48c763abb0b436d754df2201f6a1ee4ec
b033650f693c845b8c6d592045ed24e400e2d3b938f79be88b
3f4f4266b20844b7c2b4839aca6bf8e04d506229ec7a3aebaa
a1c0886ee5131007f9546ce0cb67a71530cc891bc8dd201f28
c5ea99abcc6f02211f0ddfac04155138d5d0f1a34e832c4ee5
f186b9a9f45a794174ca3c2aae3fc4c637b83da2f8a7d0771c
aff3c10bf15d5b9000b7a8abe3cead61d66736476a8dc09b9f
a58f3ca2ca3a87aad5a45590b7ebd01266ac96765d75178269
a045d59087396be37035a0a385b3b6bc33be2c7e9624970e3c
7c1736101f605b8b2f2f46f9d2baa0f3f62104173431005724
019f49b8541ecaa49d96846299657a5f1d26babaface749f8b
f014acdfb403f98c74b31c9aef924d9a26f76e52cb4505c6fe
3e53b1a4148888181d8437dad01cf742e3fa44798141d8e3b7
bb9e473992ebe133e6a44f8b20c2819aa59e0d47d86790f38c
a126a2f3b999628a282de4b1d67990632c0485fb8ec6b75be3
15110953ba48b7ed9ab5eb62ecd7c6433cc77de6a086041055
b2f469e27446e4398c65871e2c9baa50a3df3700c4bc86258d
b6f7f9907a5f1d1e42c419a956c8a91fc0504f08a9086eeac6
6733add2b77c9a1bb015866fdf3438c9de0a9773bdb8d0a011
7731af6d9606d06cf298d2cf29be3348f5f19cc3c1497997ca
7eaff95238f0417e937bf399b732e95615f70a5b68866355d6
69807cb0ae6f40fa42f189b7205ccad2c3b87aeed3205019bf
a82f017170db35f404c05839b928a15ebf19f3241582535f99
39644751f6422db2468a77bf5390182ade40926398a0c85964
525773f851d08fee473674e536ae15d810876646daebd50057
7de60adf04fe4db2380eb0fd912a95a439b6fb2cda850a5384
0bb969d43e6cd2c9612839cf1987a1f0a6a2864b944f8a419e
d2af2167099a675e4ee316f3d21e4cd1c842bfae8511b92218
91815ab8f8b68f7faf9d8af76fdb3c2e177feae1a63d2a424c
5833a3fd698d3b54eb074af30859f775dd333bbf2f6a058379
3fb78bc3320efff621e430555b31ede4cdb8c93e58b265a726
769257ed5743444faac9d1f271e00a5f2df25c21c002e54196
3647490fc97d3f7305a9f8bff598141d149c15e016c0989654
867d62277301f8cd5d595595322e000603e1a8cfd7e2d8cb0b
3a36bc118d98d44e2bb6a25bc49b2e733764187e64d2f7262b
a47af5dc17b0d68a0c0c9a172ebb933008116cdcdc4c248cc4
38a9d71c9ddaebef76f831273656e93bcc2cbd297666881ec8
a9751e8099a52b51cf9530d4beca52829432df7af117644879
