3b19d2f96522110757b6f7a397a83bb20f7979c0b298c33d1a
41a3780a771a1ffbddb99120fdd6bce0066b6559a44553fc75
3b0ed20ed340ba1f6d07561ed7ab1237a5d9317ea4336a50c9
e2898106dc5619a5012984987030813e33dafd19d28b9f9fbb
a74821b9ebf033133924021efd98a8a5ee2d8c29ce4b13f031
b48871a9b325f84b005eefff847f3d40e9514a2ac2398bc773
85f980461cb9a07e2d0a54622cfe8e2eb59eff6cf64b0089fa
5dce8ee0e68e665a953d2bc956e6d900d419a3ad368e4c9b3a
418484f7547a898402d9ae34d3a4b28a4e047cc62de5e03af0
9a23f1d0d103e892850e4cc44f7f1b67137f65f918e012ef48
b66ceed0f999d3a7cbb7108591d12b068f0acb8f703a601660
430ba1b38c4aaa7b69314f741df08720ecf062e5f8174f3681
225a47117175d4865492f091c384a61016ad56f2121de24d69
e2083d28710855623a79dc62c2dee4f6c084f677e9e07983ba
706ed7b515335be451fb46df973351c6ef8972dfe48f391404
094fd08523c16b76b3ddc5dd745017898afb539fef7d710329
a5ca58e2d953d28c6112870d1b720e11989f4c9bca090f8189
c64840405b1ea8c22e384e628346117d3d8b572c89ed1bd471
fe38c3e2bece22408bfd0ecec03ebef7501068caf5c28541db
44261ed4030f14b7b5d2ef37626d9aec014af1a04c8b0c2222
54b38798320c81bd2c139b6a8681410a7838df5f743a6e1a47
f73b005fbb72cd30669de038db1ce3fcfef060ac330499d3c6
e1991fa9c5a34715c6e12104f3c54d08051067b0fc1cbe5f00
5398830477d44f0f12dd4284ec54ed2ab03dfdfef2fd0572a2
d7fa59c42b77796752d1362d3b1816cc1431b08331f50812b9
e02bfd283694c492f77a6332ef77aafa69a7bd87fafff93883
1599b912eb78e1bada63b3ea05b1a95b9f74ac84bd88bf38a2
04c77f7f9ed07ed4e4cf08eab815024da0315e2e5290bf741f
2c2b8e1d4c70687481ecbaeee48a5e93d4b8c6a573c5376ac7
ff141852fabf82c036a8539b3556a468300d11addbd0f9c050
3477a7ba19a38b9ec7abf361314a2cef78b4504a285cb7dd5a
df21c32a67fe3882474c3927f9dd9b765bf8ed51de5d6955fa
7f9b090a7703e8f974280178eb7c2f583cb851acdaa59183f2
188c9c49f57507fb80011fdd4d7dc9989e9e18aba5f0abb3a2
ba0f6a11f95bb9295e20486f310ec06b35df01766bef504ab3
004fcca24a39b76b002020b75b2810bbab7e5e5610841dd6d3
f447d1c1b9d4082a274f1ad7cc8b7988a902890bfdd76f3288
603555fc64a309108a6f16aebaa8ce96927ec5cfdeba65a4ce
a32498516cd30ffcc801dae7626bbb4221ad21bccd9fde217d
25bb255208ec97ef80b2d4c99eed34ba230355d712c7e9184c
