45669612030273bad5bc038861faed863e3d196ae269031e9f
b28ee0df18c93654c7d841a766597b88c0ba9b7750e072b873
9258fc09d21fcb37ad4a2d5661f96a8af7112aed18423c0173
65431a55df18f5ca6cecc6994a94b02b084b4812f62988c040
d0bd04267800c71609b7a35161aa85b4dbc88f370443f3f7fc
62ab43e8b197780a6c6086406d6f1d81402339c0758a11f53b
1c09324f637396214841e12f3808b406781eb874660678fa86
e40cc261205f69dcd48d5faa20c4b1761b131ba4542fbdd072
ed5581b7c017341b846c7cdd6e5e353d6fdbb51c6cf530fa8b
a0b4ac571846304bdd34acd8587a8d3956dfdfd293bbe9fe7c
99c24646467534029abff553e975e37c461ab61ecc8b456685
060d6abd1cf55f9b5454302ed9f286bfe4582e3f2eb09f0ed7
3dd0634024e07195a64a0d3362c499f8d172ce87bc6956b845
c709aac7c08b34a84969026d15bdfcb6e7aee4d36088ac9c78
04dfe1177d80b1fd5dcdc3c90c16c60cd3d0c1c6bf0e948da5
c8f28d0711d3b3f39c1ebd6744f4f989ad59b44248d7bc7df5
11d82e0e3b6e6d966ce147c9c0a01264a44b65bddf61dbeb80
61c512ff969dd4f2f32d869303ad1f511aba66d80c4755366b
1f272999b44ee25657c4dc7f66d76589066ec678194def7ee6
b9e94c413068c2b287e97364713be9aefa1fb57e5a4525638c
50b7efb25f97a7e9fc842928685a1e76ae32144a5e54e6df83
4d1ce9b7e861848ad33bcfb7324df9a3a03e615a39c0531fa4
0dec20d1d69299d2b295cd4d6f7e98c18c0ff7b20fa979c6b2
820b7edf38d9d902fb5d167803e5f0838a506d0268a3f3df4a
a1b930291e53220f595965dfa3bab46c9c10c0eb98b483c53f
9018196b04e6ba3ad92d49b0945a9afbca3ceab01653c8e160
f7e6ede3f748fdae99af108ca3759999c87f85d1841801fabd
1c8e01dac1db80fe45e931ddc75c153566d31dc954832b9bfc
c60fc9b9c58678d61b514b0642922ecfdbf8ea127f387fdd5e
80e7e512ff98f5136baf7a2c35985c2bb444faccebf3145670
eff2a14ad6283f7cd8de90c630fa0f68e7a18a3c52ff5dda27
33a7590d78d93d4eb1bd057b9cf5779e4ca83dac10b313bf71
2220c1c81fadc22cf06e27e6ee367e38556c942be14c3d8411
2c4c9248f1c9b8ae9fb1fa1be3d8a9e81783625ef19af28506
447169a41a30a4cce190f7feadd740a4968b07a3162f8d04ac
9978a7ab303ed271532231f4d7bc3de24973b811c2d2c5c553
4ec1697255264d744150674cd8a2fb3fc985bb46366e39fc58
95da3015cb228f6ba61cc4651e02af0396662824a627fccc7a
d7c453da35d98b076256158e02073d990b7af7b940d2ef5296
3b88e046634f82ec65cd06aaf53cec911b6c7c5f07e08248fa
