47d5fd94f68f4c1930357d9ba7686ce3d1d89992d5e684395a
8423cddb55aef5347f051ba9ab2bd6328753cb12fd13ad8807
d9e74caad3ab976285b8f8c562bceaf501624ccfcd88f4f903
97dcc0ad0883a9ab95a3c61791f423810a4739c680fd1c359c
f5be87c05a83d08de72e2d82da5436b097ec378bfdddd66c74
0fde4ec7d7f9425bcba553eb77515970f6d88d67c903ad077e
e681123e0a9dfdb2c7ed8876103180ed0d2d40547ffc623f71
b769c4354a6974f37e128bfd9bc9c7f0eec117520864fec211
f434c16b42f48340b0378a21f24a8db9ee29beaee42819d583
155b8b39dca3090d422bad51a23fee18cbf63b9ab0fb76cc03
44e2c2fd2ecdd439547c7d43eaaf7d9d0bf0b09d5d7f5a588c
d5ffddc5e542e361d62f7fe73e3b745bf67013f724885fa4f4
73365b0e02a9396b4caed181f71a5d667742aaad1b0354bff5
f358c04844a3526f9dceb9e69c3d98e6e3ecd321b6bb00da6e
7eb1ceb257c491867dc94bb216458fab46ae03af9129aad9bf
a2609f236434562dab4584c0a02ef30ad77350cd08888769e2
1e9b458d43c689b8618735463cadcc92051689f219b035a9a1
28fb09a84011f3f67b2a68f010e32c711526390597bd3f709d
cc03b7415b37d7a0a7af0df455053dfa875348825ef2440fbe
0622d890eadc3cd8ec9a270edd0479a43492fa8c5bdaf9e97c
477527b911ecad9a50eb1fc1aadd828e0f72ac4001d8e63d9f
be41e26afae43644ab60813f90d1bb1189b5f6c95752f30980
343206ab504a496fb1d7bd500d5cc6d62c720b91db27356bf7
84774b1cc269ce313cdfc2e9be4046214d82949360b4cbee65
5ca32533fe0c2ecf6d78e321d6d2c17462879b2d45315f7f96
7f19353efc2d81bb707d17bc5cb01e33843be3ac2d9840ead1
85273d54fab02530f32d503985493e50b8dedacd749cbd4299
6bf0cfe79a492466bbbd582837e3d6b17bac319293af52f753
1c0ea78fe2a83cdf0958406422989b5b367824bd229363a0ed
9324ebadc93a31a81e423a2f051c7a26a715443bd994c4f7dc
44f9e5121f071f59a27f384dfcd0646fed32ab394baca7255b
e9c8e719974cc2fc057b104b38b4967cfdad02e7985e057c22
f61ac30fa9fdb07cf01a2cfa366203b7d05eab0545457ee730
fd20dc9501ecda6a9289db50becd03dc7309e43d582a1108c9
399af1f54dc88de786f93b07eea5220a5df4c65556cb2ddddd
bbb22b78d2a1aa217111174f850e542043e3acf5e693583d12
13df67ae9ebc048a0337960c5c8ce3c175ebcd0a658369064d
0410dc509e879c7394d9ea85d2113c9b725c81a62b6983b63d
1f6ee5ed7ec49e7080e107370fa8b280bac8826bb2517d949b
0a8b38379b0b7decafccb6fa3e2cc2d2aaa718a2b83961cf3f
