5b1fb4372d97178c0ae3889e3202f47912622a0e505405d120
02ec3e338a57ef6656a0fadd88af6caa55ed4db99d467059e0
a7329b6f5aa68c1ba37dcc67adf68efb4261e301c856b37bb4
6b177ebd27d49f2833783bc64b288ef5eca720c8e01bd7ad61
dff47a5298fb33f0067bdc7baaf8b4408b07c22535bd1f1bd0
7361732450974d22a995fd01991e7db77c9df99ff2a231c775
1ca3fb3d6753aed4475654830ce969f7503ffd0fec89fe7a03
c2f71a3f9caba410299c92de6b63f14980aa9355b3a5713a0a
dc7f6d436c0318631f059ff745fc43e15873b18ed1b9204429
ad7773b99ebc68ef0305b1d070e384b318c53e0409344e6ca1
80b191f5f2c1bbd4a3358203fe3f86247c81478f338b68ca2a
9912a7ee5053a2c9fab61607d7e6c7fb44b43297b993061c22
7a0648a762aaa9faef780200a02e3c2467b578030c47320dd7
0fb5e44cb8d760e54e07433918fdbb3afcb4b4ae2def268c74
d40f22ff096d6b479dea2fb5a29c32eb85909195ad6714f12b
4ed9ec911a5719e6bc1d7adc089098d85feffc2bca98c93ab3
9eed4e81454321193d6c1f46aabf595a387f211be9a5efd6d7
3aacda5a52a8780d38d4ce99e0dd183195da87961ae8d9f4a4
0a0c5d03d7401c72a43d18d44c308bae8b0917ddfcd6a93ca1
cc057f0c0bd24c92ebc2e46baa3cd8808a688e93c66f7d1ff9
d544ea2e51d86690ceb6a976200e946c2d293a8d846233aa23
840b51804f19c4eda93ac74e5ee3039b5b71429709d5a158ce
135071e5bb1e945a2f095ee70b3ad1693f2d5da9058a6b7602
fd951aca4892d615027f0843df39d5f500c826e48593fb824d
5d60338f280cb81ef53fbe5abf79ebbb1cdddcd2b622b98685
a5a18aef18272bbf07e98f7efedff85d331ccf04cebd31cf16
743b69fbe3063016bc2f70cfde25c0cbb9f232f785eeed7616
d54189e5cf101c434989c616e6f8e20c934f3c8a4490a55e83
34778b020e3377e8ca046fbaf28aa2864a05a927fa1acd7321
39bdf9a0d03b396cf59ac5786d209f093c577ade13574c60bd
0e92f3b8bd7bab52dfb51c123948c70ac3130d2b4f664983d6
9f0d9304277174a7bf37bfed704775d452507aa23f8d126260
14428d42a10c6f6f917ac66c67bceb28f9b2b07e4f3537eb20
d64e0c4e316f357f7c70316bf39b75744be25b6b6dc4ba02fe
c0923000040f555a0813074936dbbb22fece932ad8fc85343d
1d59bf32a525ba70a1a5691ae3407938c07ce220a6e34ddf09
3a6767c117b57f12a236c058abd40b8441771256354abc4088
e3bbd5b9e759d55f0a3ebdd7cf9d7d4d9216c58184dd35b675
9265272eb0356913355ed2418096af2d2d889b168270164887
251403c7728e5f4603421d66dcf5a5d715a898bd7c3f1572c1
