7685fa20faf049edf3db0acb9f309026390a40a24aabb4eac3
2c3cf266c5d086d0b5b2f47e737e14338f77a6b22c550e2854
08edbd92f34affad8d9dbf6e9423e089efed4ecabf531b7b2e
c28209bd85d3ff7b1a521abd4ff5cbff66cf165c13a2238542
ff42caf82dea749d398e249aa12e7fb1fd9f23a6c7dea777d3
936a5da277fc1acaaee01d09bb9f3985536a87249b25bb5b63
2b9d21e444cbc1ed87197d2534c30d5e921b700e2aa881b5ff
ebc4ccb48fadf052b72c19279f18ad0ba4321f0b4fcabd4139
7952357a1da8c8392df1cef0b4f4b595daef872cdee7133447
07747ac6c461135d3b96167aea5cedae583dbfbc0926e142c0
033dce9f2ed63f74887ab82f4c4cdab9713d50387e2b0ab9e9
5d35e6f1f076588f9d941a4cb79849cda95bd313467e43eaa7
ccf841a049445e203587d29b1f8eb3dfe40f82a36fe625c0de
1996e9157067ed599b5622657b0ddd2642bfcdb1827909448b
1fe40415b20978be7baede7847155c59c43b16bece2b312b1e
03238e7ff2e467c2c4b12456f2e041a6114bdff2dfb3250de4
72ecc42924ada14c786ee539c3f1efef7088659136de7df678
d7c0795a25796821febebaaaeee7687ce4b5ddf697364b9bc0
c15e068a44cb6670c86c9cc3d9907d8bc104c53ff238b5c7e6
58a91d4c4bec66ff6b4c4c45bbc975d140796ecc656642f599
57c6ab3125223995260939001fc1d1942f3f89b3fc5a4889bd
958abe8187d265fc30bdc929fec3c3acb6de60cca4b448bd6c
da19250765015321f567e73d230ddb882dd2aae58d2e28b6d3
f83f8c88a9f2212318ef68950cb11a3ecf03880e738733df6e
ddb071fa550dbcf6846f5a54226eb9c10beccf3f3dd179775f
a078f9713c2df772a3966642e90b3205a821731b21bdf41b0b
bf4c0c44ac32a543a6e7c900b9e742734a1c57f498a4654eb2
614c420a5aeeca15fbbd6ed2bafa6d42ab174fc3cda57c9d95
c561fc4750f1c94bf91027528e80503d678b8bcb048b6a566a
ea918dd550c0189c202d75d74c7d26cdb5fa0028e9d7fb578e
c5927fc9bde7f13b0439e20c83579d73f5fa15bddc18bb2c39
3e3af45c1a8e397628c799d076c72c5d05c4e174714a58cada
2b0c9011fc5d5cb8542efc97b2d12d2a01ea5bbc1cf9185ff1
3c763f91235a70dfc276d83548fb330b9a7046fe6a753ca38d
0d1b6f8deff28fa3817656db7e671ba1a9420f4014727c93a3
3554cfe72fd3e22e6c5097d5864e5ef12cf9ff221d1ce89af6
626ce3a7fdbfcb79dced088fa2553d5a57a0e908e3f0483759
09c0cc3927e3e22cdbbe5f17557917d87609d3bfd963bbb957
06bd8f305776fd4a4d95369b5c5d928f3758da7745df510217
4cacf0d36aefb9b9984c35b68bf28783c74dbab66ffeaf16a3
