9eaca2ae64eeed7587d54fc68e6cdb314274142f94627d3925
1e692bd5a0473964f450cc7c0acabaf0ef2ee7a2ca0b83214c
2b86c3fc8d0aa3bad634bc08e83341fdebf43a84ae1d72ac20
548e5099ddade9a45adf0d625287911b6894c1c315eb453c03
1824aacdd99ba0d4bc1037ecefa11f8ac078968a6534fbfb38
7ab907b2e6be69d3476831fbed0f2c4d8ef4b29e1004e094a9
d353f1478acab78eef7030dbaca5c2fd46788d874dc47124fe
aa6a6ca8637322f9b96da69af05a68f2b43010df40dcfc3d79
baca457c55790110069a69375a9fe29dc99d9c38a0d930a21b
94811a6bdd4081813f8942c1dc699f5a38feca8a4da2ddc7ab
790566793d6626813c013aeccb65bd247960cc5901e1722e09
834626b36ba3b0c732888b99fc8ffa80543d2fef78e1531ceb
7719a2ebb8c86d0a84e88941e7c0094c6332401c37aab2ae1f
e307976cddd138f1bc2c2ebb2876488acccc420504ee4e5ead
9f952836d68ff3f9adec9ba579a6302b617fbd068106ac0635
aee7bc1954a7e334a860fd444f8802a1c299df10703ae3dac4
993fc6f958d7184acab1deb718e3dff2bc4eaa8aa35a4471c2
aaa7bc31f9b664ec6469bf7136bd3ed862c94c6b5f75fff8cb
a4c1a90c7896691c1f282e23ed35c3e1460fee62a9fe42ca40
1745ef5682e76e93be8cae074bf9594544d42350f8ab1274f1
70fb341bac48c3185b4f09bf2471bc4d2fce0a3881559ad04c
70abe9bf2f682b7bcdfef9e9fd555a3c94514bcaa1327c543e
812bf5224bf79e870458dc701100ab34e92ad2182d5551dbea
d3ce7417f522f8bce028400c9a8f665977176718db3c92d654
71968a379f04d82aed74c0a861feb89548f245b65d9fe17874
2dd382f2da2248f1c282bc6d1acb8acc7aec70b16667e4713c
7ef1b5bd348a22bd727b3141013ba2c612fdc104075710fc1d
b0de102ea2ff8a88b0ab28750cbeceeeac9265e83a6703ec91
7cc0f71e65e7e796ecdb9b5e636ad225516b2af50ecb697c73
ec6e7be059376c19779704ae16c86a533ad4e4a7f040ab7d7e
92d978c0436779d4bc474d635938dc01e9580f5eb03cd41adf
39e68841e02854d1d18371694cca9acbf7d58576a1389676bf
104786521cc2552fde6fd96406a2e2c44965ba1f988cbe4e02
74f1144f3abd668102bb6e00fe2f95351686107abe9d46ec7f
b4a5b84c1b531ee34f4589260009bde0ea408b166d5519d290
2d8f10a1b8380d19f435bd274c22674d0b8f865fd4d32044f2
c64995e03074353590329b39f96611de6c57f0a27828aa0549
8f049896151a9f43faed4e9e15997d7f4d92bfb3f82e922957
6353a0483bedf834c9994d321d849e6f88109954d377640d21
4edfee1f3f6414fb29feec2047031efe2f7b8da55cbffed858
