aa27476d4f284b72cade7f8e8ad3fea5420e4f04dd7b17e632
c97a18f215a080bf48201b32676a85a0a0a446b83afc5b648f
6602873676087217a3422c3e09715592b343eb6d1adff80378
18e6f5da41c76cb783acf4a34f6d98a832a627350897dc73bc
bc5c9ba4ea81060cd67785525ef5e195fda086131380100414
61508f230622f78e6d9a18779c8d7df05adf54a6bd42b28e39
5f3462172433d485cb82cbfc575fc5145d55e0841b4fe41cdb
d50bb0a275a5d5db0dbfb28fd2155f2e9ed41df15c38c56d72
40018bea566cbf61a0770857064653f3ab61ecb3aa5a06b495
115d1cc6a37d541c95695837eac05b3d03e12ace0e041b7f7c
e3f1ebb71c95a835242e5d95ffb0a8d32a2f8deb3eb59002cd
369657d2e2e45d3f0bc47df3b5d68cb790308e916d659749bb
c74bde126bf737269a80e958fe7616e078375f5a7576a24695
feb5455dac050d2217e93bd3dd1e9cf9af3b3ff7cc4e81d5c3
ba212bd0e12369918c7e4f504d85f83dfb1ebf8e78a7860325
2142b68acfe55c1311f05297dffd40b5060347f3e2b2547d16
09bde42d5b168b2328ed2040b96bf3fb96601b2efd55ea1e89
d3c1a1cee1b4fd8fd5f3d619eb3d415715ab1b9aa88d1e66dd
6dfe3463614b796b85534f3eea8da61ee7222970e7d71011e4
d406bcef723910e4a0567d57a3a8f639a2c73c4d8beab23e8d
a6f544ca2052f2dacb21ff8a1eaf4d792d7f8ee94d25bcbe79
61088e00adea0ebab61e6164bdd1e359552f4dcf4b83fed845
4590e2256f8455630a50c7d22fa42e0864c1a279e3394e3edf
6dfb2b10bfc5b7e5941bd30e98dc5fd8cdb4e9e83d05456b05
10f70024e30fb6ab9d548971366541a08db132af7ccc6713fa
c41faf397f73a974755fa1b386d9e0ac3a64fd61b8ca3303e5
d68de2c0885b63f0bc1b8e9cc000da71bc7028fbf44cb6483c
e66887a45b95c5a827063401e543bdf41d7d245c53ee085160
16b137115b435c8aafb2f9a9e7e24f7514800d16c0deae9a98
ba2432b52bb2d5b8e7ded258a84c9aad20d903c11e88ab2423
3020cd7f6a2020809357959f55ae7f32a55aedd2b513ec6430
43f5c25e890def2ed61a2cb2aa6344380795afc0565332ba83
a78b161611014d0836fafb49fbe65d44fdb1ff98e1f2bab177
8fa3d4263688d705d6e3ed234831cd45af395d5539febff769
afafd41b19d5b8465246fb371d70e6d5e7a6eb8ef1bb3cb506
40422a04b8e82dad9b63a623dc2008b8f9504237b68ab5f0ff
7d03d794c829472c9fb5366fe8adc8553bd9b6bcbbbe2d2052
05641b06a075d5bd2baf290aa9a4099e748afb7b367d29b4f1
a6d55b12729a687d3988d8e57fbc880a8529ea18fd79e3e2ce
c884a2a18332171e0ad92df9fd25e524cba706eb07e6a1ad72
