e997784904ac17492942f0efb5d4cae452a30c18301d84b4ea
7024b148aecdc1ba60cb94905a3ab0f2b6593af0ca033d599a
63b76311128bd3583e07ec2fda4993e518d6da839008a4383c
f0dc4e1b199314899fe5c63d9308f71c055ab80f2c549a176f
d753936decd9049d8a8483700953bbff780f764a2d5d190346
bda90eedbd9625a1f4994f9ae84e8c5611ad44a8ea6ecce638
2c39a5832737e2f4d788255cb198a74a75b435ef16d6a1a9d7
f46640ae904b8a67335e09d73556d45f6c665b8629cc2c6d18
c29c63e035fa5984424963a0c1eb88ada815ae417d72d77864
954ce8f0435bf58c7e1d83600ee496b875f3ad4c9f88b60402
5417cd7bd70b62629a458c3395c47cedee2a11ac1485df8001
fd074bb3f50d45416b9063f39ce747a1ae9b03ad7195c37eac
9029670ad9059b01d7d78a8935a3f81c685543c2b7b41779db
e48be619ef64a8c57fc51a996b3950e2a9af0af5f308a1e1e5
77dc805477057d299f87f3e5b912480daf77358dd33f0f587d
ee9e05ed46bc7b97d98bfc5d326cb8d4114c5c12c3e939f016
d0c996668bac46fb902d508bb3fe8d871ab389751fcdf6a6f1
217e66d5ab3dd5b3500ce64e77af3b8a3015f610a105d25cc3
58d2e3dca0537ff38af180a4926ea391a4129e868501c7fb99
db8ddb17591c8f56a90ae467c3e0c9ad275026639df9ccd717
535ff8e3d9139eb456df9b196dff28d0cf13a30b315d172c92
504bd249a60692ea459f508df53069afcd9f748c56bb23d567
05e3ff992f8e0ed31f37b63d7b952dd91d6c334ad82cca7a5d
e099f92b5597ce5d130d3114a4abd78e36d6256f0110893e65
59b0a53bd0cb326b875871e9c61998290bd8a46028b67199b7
2a68437b044c9b24883c2b0be436477c54eb3113692e87d0a8
ee633706923a5e0849e804e4c8ab5e1ffef85583f443c6288f
1adb15c8ad071757e4fbc23f7e71db0b0bc801898051399437
f6aeac36a0487d31360ec56caa5d7d0cacf1878932a96996b0
fbad2d26d3d6fe33a40f767d1557a41583ae3823b004093c14
681e560c3dd7222ff4fab0d90ca201c6100add37fdae9c0a09
58e62abae9845de8bbe2f2dfc4ae747bb361f571b2bc3853c3
37fb97e52116fd48192453f451129fa2df555de492647357e1
77d2d4a84c9604cae0cc9955980a6f62d2f983cf7a9d306e05
365013447b2a1a2596dce29a7a07fc3ece59a37c066c4835b8
4869b9cff7e5621124ea0968f82ab88e878b6dcb0e7fdb0de6
5224b53a3d97a8f3c86c91cbbcd25a3904e75068f201734649
cae41271515bc8325c922fc2744b2ca75cb542b2ea71badfa1
04b3847e2da433b52b86e8f0a8fea4e1b81df7bfc656250d4c
0faeb4bb4633b374f68b1a648efde5894ae9a26eb1d92d54c1
