f2e14a544b4cc76e508a722a2a45104297e54aaac71fd28c69
8b47cff99e603c6296de887df1921c89e624f383deb61d161e
78ccc851d1e28e198e921ef1b5c301028e6d37b742672a4da7
e399f44d9a0bcadf98ad1fccaf6b697ae5328079c3cecc5589
dbdfd61a2571440e7a0f82a178626f8e8d105c7253e28957cb
701008712c71e7ec561b131a68de7313231fe140c6f800b4a3
fb4160ddaa6a4266fcabe1d421127ec3008fd0188cdf7731ea
6344ef2bb5e841ffd74ef09b4d6ac05d808335965dbd34cb4e
debfb25a368874f938703c341b40c374412f4eba971a85857e
5a271abd402566118380d45d7d26c1190fd3a14065e521d9b4
0ca7f11d1ec90a7c286148d9aef8dc2a04132021d0db70ccba
efd199b7581b871b9c95b1606c517db9d9d0b363c7e0c69138
b9b47b8094f1508e5ae76947dc73257c838c66ca16170354e8
10cde9f2544d90996411eff8a78bea62de48461fe1f3b673a6
6421aa7cf86e0490960cfe36f71e62f5a491cd4d3f4ae89f1e
89027a208935fc651da422d55632dd7b46bcf4a06c5e229eb5
82f44c9dadfb4183448516041b2296b9242879ebb3512586f3
98fdae6ce6b22bff1f5f833a584fb81344c5c4126d8a4f6b0d
d4c7e743253585c525822ac62a73e7bfbd4a48567b7d0b25b3
c9dd0b0b4d59a85bac4b7ba612290ff07d0a011f0060d3cf5f
eb48df6c3c54ac34b3e2206cd6da47bc4b0a192caf0ea887f8
9047e1cc6e92127a18cfb0379672868942a94a2986bad30f55
059f160a8838bc2c65d9d9d210854eaf2319b7e9fd75da94ef
759ac0d8ea2819075d07c3fbd374557bac18c9dc95e70068b1
8e40c2d66168bd5ae310aa8c37c7d38fefab75b6c1fb8172e2
9a5595374148bc71efd2de6ba17cd857d8e497b2a9cd191257
caefb94f087b3b79f15cbe51f3551a470ab8cf10d65abbd87e
4125327202212cc6e195a7ec72880deb048f17a633bcfccd61
d74653d525fede11adb583767005e200890f5afec8536dbe37
6997871b5c68a97fe85bac04989d2ec57bf38df29a99525510
58b3b24075dd3ca07b016e157e158f8d96b4c7e21499d0c382
f5ea4d9b7a49f3c6f8b133bf788d5f2bdb77365a5336d7a69f
2d7a893cfc8896753043b5c544208244b39010d0d8d13c8c45
7072fada15a44e9ddca9679a783b384f3b05765ee1f56f8f38
b5673c65af3c61f34d843dad772d95a72be14d967f2dba08f6
7e1cd9bf004436dd82e4618c0f0f410b1ccdcb5118889890fe
52c1b78ed582d9be57b4b552cbd6d8b5dc29fd43f60eab98c1
12bedaff333ca26fb31324a58a72566753d89f9d4076996528
4c7fcb44e3abe3587705093f3ee6e5da987ecde4b577489853
0dd944370e51fe1fe03fbfbcf427a837fd3b595a3d476ef2fc
