f6ac578f05ee04e116591ca122a508f1fe1c21c80ecb7c4a10
83c3e2b139d44b43765d7c740989d402c626a19ac62e4328e3
d434630804e81aa55cffe7bb3c0a6b5e9784931108e2173774
d478fd6b886d79613fffb985f802cc96f151225492e6d3de43
e66d0d7d2dcae787d0c3d11dde5f00ea45b7521affc8d247d8
0dce918826f23babb2d0306a7872a985d00110db2c0091578f
370b67b39a2e810c138df1dc49728b0c04cd42b709cc256d71
9f913ff82597db1b99396842cbfd408ff8665e223f4d488e09
07da9a360cde79e9540e674ea260161fe21978e5f899aebd51
181288a1282d6913504450152e90b92cfc32b7ee6239533956
2316514a2dfef22a9950bd02b731d21daf671dadfd0497e8c2
ad66f12418ecfbbe1b437f59768c66ce756a9d58c894c66e26
abef42e87b565dad2087541534f3f9b7eb528d780a42fbafc1
2757a46d5fc3179867471c73ec8e91eb699d35507bf567bd95
5f12fe62a142ef89ca2f9d3b7ae92a1fb0e3f9d79ac6d05551
d5390e0de1e821c3516be3721fe714242c2454c5d7317ab91c
6d1e2d68f6315d852d7c6ab07a42cddad35471d3516da2ee49
8996e03bf552443c252327f81e7880da50f96dce28762d837a
09b0fdab06690b35b9864b747930c460b52104234b19f3c0e8
843baf650eb1909bc7b1b62a562b402ece67f293a9eabe82c2
a567ff9da001739f2854273b0f1b1bc0ef632f48d3c50a0dd8
e3d4b6b5fcb8ab42f09420167bc1b9630cb56e32fbb6dbfb61
a880bcc831d004693cf1202c803f3f7a331d0c2f5e1d3b7fd9
520332878b52749da9b2a932788f75a6fe61f41286bff3de61
39b5826e51376f2961e2ca2beecf04f1a5ebb102dcbdc1a3fd
a80ecded8c63e5fdbf862dce259c73441a8484d0a52663d373
338fb08dbd0c1317f7dcd69ed88096cefbd162a9797092bebe
0a168b2d930894e13d12d28c05d45f83ad653c3b4cde663984
03dc457b73f4aeb5725ef62f0f371446597718d6677d9c7e1b
1928d979a9325a43990aa7ef0971662bfb013cce95925d65ec
86ac2a2751d78cf83c04c2b002f287404365685f35d7038d1a
9f6df35d8b84fdab075ef73d6fa497e821d2197b6ebb53f8d4
0bcd1ac088fe7e1d6d12a9f2c101b24860145a456d3341875b
9d4e06a4c71c89f0cf2e39266991b998a9ee6813bf66b91304
cc6c8108417991c81f48d5bad736ca73e38af35b5d8276a575
736206bb2095b86f4220182b33772a2d12dea7dc40cc58fbc6
7048662d518815ecbd2d34c5fc3ca7ebc8137f03e9cfc563d1
b8aea8aeae39cac91953db0004ecb88faf4b57b87bf9645cd8
2995f3f077f1d016ee75edc31dc2d717e752b9ab22ecf1be15
a60c269bd96c30a074c69fa696f44ec71554112a011918cb12
