fdcb6a8d0d65106475feba6309b1fa83d7053e310add6b3839
d68975d91136e39c3126f5f32b7b32f72004f577a36b1ec4da
9437e2b1d29c0d878a417e1fb109078fcfd18b6939266ae2fd
07aae3c5a1c8d56db8258e1ffcb6f28337a1aaa3837abc6b99
d0259c59916915a07df2a6f487a120d5610f1dd52ee48d6ce3
b8cb7dffad05b8eccf9c857d81b2f438d75afad07eae5b78c9
4ca557d067146391de289c689c8b34522bd0883cfaf5e848ce
e36b820563820d7b550e0def6a76b95b537258983336624f33
25792b36b6f23322524eb9f10949a94a047cc660389ec24341
8cfe76467cc1780a86bf0654a48377f24350f9eb78d383ae6f
02c5e211151dc9fa3f53d0048222c28ae74a29cc861a538c36
22500a42e627d7e23804fdae2cfc0dc20c7fefdc2da969242b
5e45037345fb3a20fffa3b898d42bcf9c2dfb1b7bed4842e3a
4c0c87bff815c16e0d3ce4181b320ffe9de63b122782ec2502
b0be4a25f245a4d841a4b7c0ca44c3b28adaea0da29fcf3292
46a6b1e2738c916a0d3fc40dfff906cbab651c3f9b877733a8
1369b2e93c8659d73c2207633e5c73ea77d99b95d039da29b9
aaf8b41a72fa9b9c0a9556976eb0471816c6e69b0e335656e8
1231071ac3601e6a86cf72d4aebbe6acab750424519c754f37
f0cb2b67d1181268754e9c32d21373d50d3bda29d0d9be3d8b
8a9bcf0dd3524e93752ad48a5f0c8e5cbbab24cf513fff2810
988fd34ad70b48ce35562a8056749a78598e9ab41dd769c752
a709e2f43a4519f8c0db490c2cf5935a404b31443817e35833
1e819d8fdfd607ece94a13aa63c412fb663f3c504cd279fc65
06fe44b8af7d3b4754c1aed168e54d9829fd1353fd3c8b67be
1afa0ae49b937718f9a038077b8d355d0131d4413afa54778c
7cb1f5b6f5f4d5ba2432ac9e1a90106b9ac1e66d900daecd3f
d3176257ffc073aab0a6b6fe70444c5e4fa4d0ae96b12f9194
90836c8d2e97e140918df1c54d6c10cc1449a419db4202b41f
b91fd3cfa203281b74c6a939e5b66817448ae765d7bd5db42c
94fe60c4b8c07fb0cc0bf3d8c447f3e985e0b38afe2f522aea
7dab45fe97e4990483dbe39e6a77accd92f2457d88ec9259e0
0e152f8dc3c1ba23eb03906665f1bda7b13d342054a11bd683
4b73ddf104706e97658c5d85af3859c16560d3736842898bc5
73629e28cd839ea7cab334d33cbdb8cf39eac018a8508b0326
e8c8d2cae60c430ac4022a57c367a4bba2095be1dc31143859
2e5c66f6590b0476f8b0c92ae8c5ee6e938dfbd88224d3546d
ac99fac7379ece01b4e06ffbca375c781abe262eec7d26fcea
7b45f97b0533b2c833cbdd747e6530d9b7e97036d7539e38ac
1ebea56cdfee5c218f4892d1169bd20a7b62d1dbd3103d8a68
